INDEX VERSION 1.127+E:\STUDIA\ZTI\rNote\.metadata\.plugins\org.eclipse.jdt.core
705652020.index
1086680655.index
1668065962.index
2261558828.index
1888337374.index
1808244149.index
3152180198.index
2370713616.index
2808043681.index
3517683750.index
900771366.index
572690853.index
3783854839.index
2926507553.index
3763358840.index
1496163222.index
3574752944.index
2761658226.index
2945162093.index
248549610.index
2791592431.index
1506542021.index
2290179579.index
430205200.index
2914385595.index
405721900.index
989100477.index
3125346784.index
4236009997.index
621534817.index
3271341787.index
1948745554.index
3151019598.index
152197610.index
1290816296.index
2973694425.index
3039639465.index
2632383503.index
1651349548.index
3930511455.index
4261036103.index
1825938044.index
4228409029.index
1552204832.index
4142306923.index
3764404749.index
2067772753.index
4227288952.index
3943764385.index
3798421643.index
133535615.index
121325700.index
277007042.index
3678980623.index
1945994942.index
2350467747.index
2632520462.index
2000421222.index
3859969973.index
3986819808.index
1911420597.index
1209047384.index
3764280938.index
1298546521.index
2308600567.index
302332643.index
1173709850.index
1670528678.index
1646128936.index
1618009649.index
47423239.index
946827335.index
1395866546.index
3490590320.index
2620901056.index
1095561741.index
1507339265.index
3876561862.index
2614854253.index
1945621087.index
83085761.index
3062024560.index
3812057609.index
785658159.index
2097064711.index
1484076330.index
2311857732.index
509712851.index
1980129763.index
1483440671.index
